{"failedCount":0,"prefixedPath":"classpath:examples\/users\/ExampleAPI3.feature","packageQualifiedName":"examples.users.ExampleAPI3","loopIndex":-1,"relativePath":"examples\/users\/ExampleAPI3.feature","scenarioResults":[{"sectionIndex":1,"stepResults":[{"result":{"nanos":242370400,"startTime":1703261406072,"endTime":1703261406314,"millis":242.3704,"status":"passed"},"step":{"line":57,"prefix":"*","index":0,"text":"configure ssl = true"}},{"result":{"nanos":1404700,"startTime":1703261406317,"endTime":1703261406318,"millis":1.4047,"status":"passed"},"step":{"line":58,"prefix":"Given","index":1,"text":"url 'https:\/\/gorest.co.in\/public\/v1\/users'"}},{"result":{"nanos":665647300,"startTime":1703261406318,"endTime":1703261406984,"millis":665.6473,"status":"passed"},"step":{"line":59,"prefix":"When","index":2,"text":"method get"},"stepLog":"11:10:06.395 request:\n1 > GET https:\/\/gorest.co.in\/public\/v1\/users\n1 > Host: gorest.co.in\n1 > Connection: Keep-Alive\n1 > User-Agent: Apache-HttpClient\/4.5.14 (Java\/20)\n1 > Accept-Encoding: gzip,deflate\n\n\n11:10:06.962 response time in milliseconds: 554\n1 < 200\n1 < Date: Fri, 22 Dec 2023 16:10:06 GMT\n1 < Content-Type: application\/json; charset=utf-8\n1 < Transfer-Encoding: chunked\n1 < Connection: keep-alive\n1 < Cache-Control: max-age=0, private, must-revalidate\n1 < etag: W\/\"61ad5039ac8ee3e9e584de2ec7bc53a7\"\n1 < referrer-policy: strict-origin-when-cross-origin\n1 < vary: Origin\n1 < x-content-type-options: nosniff\n1 < x-download-options: noopen\n1 < x-frame-options: SAMEORIGIN\n1 < x-permitted-cross-domain-policies: none\n1 < x-request-id: b44defa5-2923-483a-b09f-8416f5e0b002\n1 < x-runtime: 0.027246\n1 < x-xss-protection: 0\n1 < CF-Cache-Status: DYNAMIC\n1 < Report-To: {\"endpoints\":[{\"url\":\"https:\\\/\\\/a.nel.cloudflare.com\\\/report\\\/v3?s=OwYuwZE%2F0PtfiNRSiB6iEbUXwKVwU4cOkcK4ahSS6LCKnT1jMFjuexSHu87%2B3F56fg3DKF3SYvTqNZWWLcktXYNliMtQcv2TREvzwIWyUI2e2f9X4M4uUGy0c1ixr2k%3D\"}],\"group\":\"cf-nel\",\"max_age\":604800}\n1 < NEL: {\"success_fraction\":0,\"report_to\":\"cf-nel\",\"max_age\":604800}\n1 < Server: cloudflare\n1 < CF-RAY: 8399a20f4e110cae-EWR\n1 < alt-svc: h3=\":443\"; ma=86400\n{\"meta\":{\"pagination\":{\"total\":2693,\"pages\":270,\"page\":1,\"limit\":10,\"links\":{\"previous\":null,\"current\":\"https:\/\/gorest.co.in\/public\/v1\/users?page=1\",\"next\":\"https:\/\/gorest.co.in\/public\/v1\/users?page=2\"}}},\"data\":[{\"id\":5816759,\"name\":\"Bhadraksh Chopra\",\"email\":\"chopra_bhadraksh@russel.example\",\"gender\":\"male\",\"status\":\"active\"},{\"id\":5816755,\"name\":\"Rukhmani Pillai\",\"email\":\"rukhmani_pillai@olson-schaefer.test\",\"gender\":\"female\",\"status\":\"active\"},{\"id\":5816752,\"name\":\"Bhuvanesh Desai\",\"email\":\"desai_bhuvanesh@cremin-kuvalis.example\",\"gender\":\"male\",\"status\":\"inactive\"},{\"id\":5816750,\"name\":\"Tanirika Ahluwalia\",\"email\":\"tanirika_ahluwalia@ortiz-daugherty.example\",\"gender\":\"male\",\"status\":\"active\"},{\"id\":5816747,\"name\":\"Baalagopaal Reddy V\",\"email\":\"reddy_baalagopaal_v@goyette.test\",\"gender\":\"male\",\"status\":\"inactive\"},{\"id\":5816746,\"name\":\"Ameyatma Varman\",\"email\":\"varman_ameyatma@bruen-huels.example\",\"gender\":\"female\",\"status\":\"active\"},{\"id\":5816743,\"name\":\"Shantanu Khan\",\"email\":\"khan_shantanu@spinka-brekke.example\",\"gender\":\"male\",\"status\":\"inactive\"},{\"id\":5816741,\"name\":\"Chiranjeev Malik\",\"email\":\"malik_chiranjeev@friesen.example\",\"gender\":\"male\",\"status\":\"active\"},{\"id\":5816739,\"name\":\"Dhaanyalakshmi Dubashi Jr.\",\"email\":\"dubashi_dhaanyalakshmi_jr@reichel.test\",\"gender\":\"male\",\"status\":\"active\"},{\"id\":5816738,\"name\":\"Kama Adiga\",\"email\":\"kama_adiga@bayer-keeling.example\",\"gender\":\"female\",\"status\":\"inactive\"}]}\n\n"},{"result":{"nanos":2144800,"startTime":1703261406985,"endTime":1703261406987,"millis":2.1448,"status":"passed"},"step":{"line":60,"prefix":"Then","index":3,"text":"status 200"}},{"result":{"nanos":17365700,"startTime":1703261406988,"endTime":1703261407005,"millis":17.3657,"status":"passed"},"step":{"line":61,"prefix":"And","index":4,"text":"def temp = response.data[0].name['Bhuvanesh Desai']"}},{"result":{"nanos":10710500,"startTime":1703261407005,"endTime":1703261407016,"millis":10.7105,"status":"passed"},"step":{"line":62,"prefix":"*","index":5,"text":"print temp"},"stepLog":"11:10:07.015 [print] null \n"}],"line":56,"description":"","durationMillis":939.6434,"failed":false,"tags":["ExampleAPI3a"],"executorName":"main","name":"get employee id's","startTime":1703261406028,"refId":"[2:56]","endTime":1703261407016,"exampleIndex":-1}],"callDepth":0,"name":"Reusable Function","description":"","resultDate":"2023-12-22 11:10:07 AM","durationMillis":939.6434,"passedCount":1}