{"failedCount":0,"prefixedPath":"classpath:examples\/users\/ConditionalIfLoopAPI4.feature","packageQualifiedName":"examples.users.ConditionalIfLoopAPI4","loopIndex":-1,"relativePath":"examples\/users\/ConditionalIfLoopAPI4.feature","scenarioResults":[{"sectionIndex":4,"stepResults":[{"result":{"nanos":189066000,"startTime":1703343458821,"endTime":1703343459010,"millis":189.066,"status":"passed"},"step":{"line":82,"prefix":"*","index":0,"text":"configure ssl = true"}},{"result":{"nanos":1077000,"startTime":1703343459012,"endTime":1703343459013,"millis":1.077,"status":"passed"},"step":{"line":83,"prefix":"Given","index":1,"text":"url 'https:\/\/gorest.co.in\/public\/v1\/users'"}},{"result":{"nanos":651191299,"startTime":1703343459013,"endTime":1703343459664,"millis":651.191299,"status":"passed"},"step":{"line":84,"prefix":"When","index":2,"text":"method get"},"stepLog":"09:57:39.079 request:\n1 > GET https:\/\/gorest.co.in\/public\/v1\/users\n1 > Host: gorest.co.in\n1 > Connection: Keep-Alive\n1 > User-Agent: Apache-HttpClient\/4.5.14 (Java\/20)\n1 > Accept-Encoding: gzip,deflate\n\n\n09:57:39.646 response time in milliseconds: 555\n1 < 200\n1 < Date: Sat, 23 Dec 2023 14:57:39 GMT\n1 < Content-Type: application\/json; charset=utf-8\n1 < Transfer-Encoding: chunked\n1 < Connection: keep-alive\n1 < Cache-Control: max-age=0, private, must-revalidate\n1 < etag: W\/\"66527115bec39a34d40e739322b30e0b\"\n1 < referrer-policy: strict-origin-when-cross-origin\n1 < vary: Origin\n1 < x-content-type-options: nosniff\n1 < x-download-options: noopen\n1 < x-frame-options: SAMEORIGIN\n1 < x-permitted-cross-domain-policies: none\n1 < x-request-id: 5ea227f5-1e18-4459-9409-db0898dacf70\n1 < x-runtime: 0.030648\n1 < x-xss-protection: 0\n1 < CF-Cache-Status: DYNAMIC\n1 < Report-To: {\"endpoints\":[{\"url\":\"https:\\\/\\\/a.nel.cloudflare.com\\\/report\\\/v3?s=C1I8BhSnW1dyIfUE0DPPGpYzSz%2BpQWO8OhI00nwZk37MecZd89MESHh1kzXMwIbxHkyphMq1J8WpAemKgzKzRQyoDAjoJCZ3L9ytAcWI0JevugryxqOEZGMNOYdLlPc%3D\"}],\"group\":\"cf-nel\",\"max_age\":604800}\n1 < NEL: {\"success_fraction\":0,\"report_to\":\"cf-nel\",\"max_age\":604800}\n1 < Server: cloudflare\n1 < CF-RAY: 83a1754c9e2e0f6f-EWR\n1 < alt-svc: h3=\":443\"; ma=86400\n{\"meta\":{\"pagination\":{\"total\":2672,\"pages\":268,\"page\":1,\"limit\":10,\"links\":{\"previous\":null,\"current\":\"https:\/\/gorest.co.in\/public\/v1\/users?page=1\",\"next\":\"https:\/\/gorest.co.in\/public\/v1\/users?page=2\"}}},\"data\":[{\"id\":5816733,\"name\":\"Avadhesh Desai\",\"email\":\"desai_avadhesh@king.test\",\"gender\":\"female\",\"status\":\"active\"},{\"id\":5816727,\"name\":\"Ekdant Nayar\",\"email\":\"ekdant_nayar@corkery.test\",\"gender\":\"male\",\"status\":\"inactive\"},{\"id\":5816726,\"name\":\"Baalaaditya Pilla\",\"email\":\"baalaaditya_pilla@huels-cummings.test\",\"gender\":\"female\",\"status\":\"active\"},{\"id\":5816723,\"name\":\"Prof. Bhamini Ahuja\",\"email\":\"prof_ahuja_bhamini@beer.example\",\"gender\":\"male\",\"status\":\"active\"},{\"id\":5816722,\"name\":\"Siddhran Jha MD\",\"email\":\"md_siddhran_jha@fisher-adams.example\",\"gender\":\"female\",\"status\":\"active\"},{\"id\":5816720,\"name\":\"Balamani Gill Sr.\",\"email\":\"gill_sr_balamani@vonrueden.example\",\"gender\":\"male\",\"status\":\"active\"},{\"id\":5816718,\"name\":\"Bhaumik Patil\",\"email\":\"bhaumik_patil@fahey.example\",\"gender\":\"female\",\"status\":\"active\"},{\"id\":5816716,\"name\":\"Dwaipayana Chopra\",\"email\":\"chopra_dwaipayana@gislason.example\",\"gender\":\"female\",\"status\":\"inactive\"},{\"id\":5816715,\"name\":\"Balagopal Bandopadhyay\",\"email\":\"bandopadhyay_balagopal@smitham-heathcote.example\",\"gender\":\"male\",\"status\":\"active\"},{\"id\":5816713,\"name\":\"Draupadi Varma\",\"email\":\"draupadi_varma@haag-tillman.example\",\"gender\":\"female\",\"status\":\"inactive\"}]}\n\n"},{"result":{"nanos":2700700,"startTime":1703343459665,"endTime":1703343459668,"millis":2.7007,"status":"passed"},"step":{"line":85,"prefix":"Then","index":3,"text":"status 200"}},{"result":{"nanos":56038299,"startTime":1703343459668,"endTime":1703343459724,"millis":56.038299,"status":"passed"},"step":{"comments":["#      * print karate.jsonPath(response.data, '$[*].id')","#      * def myJson = karate.jsonPath(response.data, '$[*].id')","#      * def myJson = karate.jsonPath(response.data, '$[:5]..name')","#      * def myJson = karate.jsonPath(response.data, '$[2:7]..name')","#      * def myJson = karate.jsonPath(response.data, '$[?(@.gender==\"female\")].name')","#      * def myJson = karate.jsonPath(response.data, '$[?(@.gender==\"female\")].id')","#      * def myJson = karate.jsonPath(response.data, '$[?(@.id==5816718)].name')"],"line":93,"prefix":"*","index":4,"text":"def myJson = karate.jsonPath(response.data, '$[?(@.gender==\"female\" && @.name==\"Dwaipayana Chopra\")].id')"}},{"result":{"nanos":3795301,"startTime":1703343459723,"endTime":1703343459727,"millis":3.795301,"status":"passed"},"step":{"line":94,"prefix":"*","index":5,"text":"print myJson"},"stepLog":"09:57:39.726 [print] [\n  5816716\n]\n \n"}],"line":81,"description":"","durationMillis":903.868599,"failed":false,"tags":["UsingJsonPath"],"executorName":"main","name":"doin' more array filtering stuff","startTime":1703343458783,"refId":"[5:81]","endTime":1703343459727,"exampleIndex":-1}],"callDepth":0,"name":"Conditional Statement Using If and Loop","description":"","resultDate":"2023-12-23 09:57:39 AM","durationMillis":903.868599,"passedCount":1}