{"meta":{"pagination":{"total":2796,"pages":280,"page":1,"limit":10,"links":{"previous":null,"current":"https:\/\/gorest.co.in\/public\/v1\/users?page=1","next":"https:\/\/gorest.co.in\/public\/v1\/users?page=2"}}},"data":[{"id":5840940,"name":"Gauraang Mishra","email":"mishra_gauraang@kertzmann-leuschke.example","gender":"male","status":"active"},{"id":5840939,"name":"Mr. Bhooshit Panicker","email":"panicker_mr_bhooshit@lebsack.test","gender":"female","status":"inactive"},{"id":5840937,"name":"Aanjaneya Joshi","email":"aanjaneya_joshi@legros.example","gender":"male","status":"active"},{"id":5840936,"name":"Vasudeva Dwivedi","email":"dwivedi_vasudeva@beer-streich.test","gender":"female","status":"inactive"},{"id":5840935,"name":"Rev. Sunita Saini","email":"saini_sunita_rev@harber.example","gender":"female","status":"active"},{"id":5840934,"name":"Amb. Harinarayan Sethi","email":"harinarayan_amb_sethi@grimes.test","gender":"female","status":"active"},{"id":5840933,"name":"Uma Agarwal","email":"uma_agarwal@weimann-shields.test","gender":"male","status":"inactive"},{"id":5840932,"name":"Anilabh Malik","email":"malik_anilabh@oberbrunner.test","gender":"female","status":"active"},{"id":5840931,"name":"Rev. Aashritha Achari","email":"aashritha_rev_achari@langworth.example","gender":"male","status":"inactive"},{"id":5840930,"name":"Kanaka Marar","email":"kanaka_marar@vonrueden-mcclure.example","gender":"male","status":"inactive"}]}